083046,user1 tạm dừng đơn hàng 0000000010;
083108,user1 tạm dừng đơn hàng 0000000010;
083113,user1 tạm dừng đơn hàng 0000000010;
083126,user1 tạm dừng đơn hàng 0000000010;
083130,user1 tạm dừng đơn hàng 0000000010;
083138,user1 tạm dừng đơn hàng 0000000010;
083142,user1 tạm dừng đơn hàng 0000000010;
104125,user1 tạm dừng đơn hàng 0000000010;
111033,user1 tạm dừng đơn hàng 0000000010;
111827,user1 tạm dừng đơn hàng 0000000010;
112242,user1 tạm dừng đơn hàng 0000000004;
112729,user1 tạm dừng đơn hàng 0000000001;
113113,user1 tạm dừng đơn hàng 0000000001;
113255,user1 tạm dừng đơn hàng 0000000001;
113316,user1 tạm dừng đơn hàng 0000000001;
152621,user1 tạm dừng đơn hàng 0000000004;
152630,user1 tạm dừng đơn hàng 0000000004;
161934,user2 tạm dừng đơn hàng 0000000002;
161940,user2 tạm dừng đơn hàng 0000000002;
164830,user1 tạm dừng đơn hàng 0000000010;
164842,user1 tạm dừng đơn hàng 0000000010;
